ReadData            DEBUG Property update for OutputLevel : new value = 2
ReadData             INFO in initialize()
EventSelector       DEBUG Property update for OutputLevel : new value = 2
EventSelector       DEBUG Service base class initialized successfully
EventSelector        INFO reinitialization...
EventSelector        INFO EventSelection with query 
EventSelector       DEBUG Try item: "PFN:NullableCollection.root" from the collection list.
EventSelector        INFO Using standard collection ref 
EventSelector       DEBUG Try item: "PFN:NullableCollection.root" from the collection list.
ReadData            DEBUG input handles: 2
ReadData            DEBUG output handles: 0
ReadData            DEBUG Data Deps for ReadData
FullColl            DEBUG Property update for OutputLevel : new value = 2
FullColl.FullCo...  DEBUG Property update for OutputLevel : new value = 2
FullColl            DEBUG In initialize 
FullColl            DEBUG Found IDecisionSvc.
DecisionSvc          INFO Inserting stream: FullColl with no Algs
FullColl            DEBUG End initialize 
FullColl            DEBUG In initialize 
FullColl            DEBUG Found  'StoreName':StoreGateSvc store.
FullColl.Regist...  DEBUG Property update for OutputLevel : new value = 2
FullColl            DEBUG  Tool initialized
FullColl            DEBUG  Not class requested by Tool, skipping (40774348,"RunEventTag") 
FullColl            DEBUG  Not class requested by Tool, skipping (222376821,"*") 
FullColl            DEBUG End initialize 
FullColl            DEBUG input handles: 0
FullColl            DEBUG output handles: 0
FullColl            DEBUG Adding private ToolHandle tool FullColl.RegistrationStreamLCGTool (RegistrationStreamLCGTool)
FullColl            DEBUG Data Deps for FullColl
AthenaEventLoopMgr   INFO Setup EventSelector service EventSelector
EventSelector       DEBUG Try item: "PFN:NullableCollection.root" from the collection list.
FullColl.Regist...   INFO Collection Events output: 0
FullColl.Regist...   INFO Unable to register collection: PFN 'RootCollection||PFN:CheckNull.root' already registered ( POOL : "registerPFN" from "FileCatalog" )
ReadData             INFO in finalize()
ReadData            DEBUG Calling destructor
FullColl            DEBUG In finalize
