# This file was automatically created by FeynRules 2.3.19
# Mathematica version: 8.0 for Mac OS X x86 (64-bit) (February 23, 2011)
# Date: Mon 18 Apr 2016 10:06:31


# 
# This is the logfile for the model HC

# Authors: K. Mawatari
# Model version: 4.1
# Checking the Quantum numbers
   * Electric charge defined.
# Checking the Lagrangians
   * All Lagrangians are ok.
#
# Particle definitions
#

   * No particles removed. All particles correspond to GenInt setup.

# Automatically assigned PDG numbers
   * Assigned PDG number 9000001 to particle ghA
   * Assigned PDG number 9000002 to particle ghZ
   * Assigned PDG number 9000003 to particle ghWp
   * Assigned PDG number 9000004 to particle ghWm
   * Assigned PDG number 9000005 to particle ghG


# Compulsory PDG codes:
   * Class SM leptons complete.
   * Class SM neutrinos complete.
   * Class SM quarks complete.
   * Class SM gauge bosons complete.
#
# Parameter definitions
#

   * All parameters are ok.


# Vertices
   * Calling FeynmanRules for 1 Lagrangians.
   * Number of classes vertices: 97
   * Number of flavored vertices: 145
   * Saved vertices in InterfaceRun[ 1 ].
   * Removing all ghosts and Goldstone bosons form the output.
   * Checked QNumber conservation.
      - Quantum number GhostNumber conserved in all vertices.
      - Quantum number LeptonNumber conserved in all vertices.
      - Quantum number Q conserved in all vertices.
      - Quantum number Y conserved in all vertices.
   * particles.py written.
   * parameters.py written.
#
# Vertex definitions
#

   * 144 vertices written.
   * vertices.py written.
#
# Lorentz structure definitions
#

   * 62 lorentz structures written.
   * lorentz.py written.
#
# Coupling definitions
#

   * 114 couplings written.
   * couplings.py written.
#
# Coupling order definitions
#

   * 0 couplings orders written.
   * coupling_orders.py written.
#
# CTCoupling definitions
#

   * 0 CTcouplings written.
   * CT_couplings.py written.
